{
    "name": "com.fdt.sequences.editor",
    "references": [
        "com.fdt.sequences",
        "com.fdt.common",
        "com.fdt.common.editor"
    ],
    "includePlatforms": [
        "Editor"
    ],
    "excludePlatforms": [],
    "allowUnsafeCode": false,
    "overrideReferences": false,
    "precompiledReferences": [],
    "autoReferenced": true,
    "defineConstraints": [],
    "versionDefines": [],
    "noEngineReferences": false
}